{
  "Tweets": [
    {
      "id": 702398099461951500,
      "text": "Ahir disfrutant amb el millor equip del món 🔵🔴🔵🔴\\n\\nVisca el Barça! @ Emirates Arsenal Stadium https://t.co/mFpwnALKkq",
      "created_at": "Wed Feb 24 07:42:11 +0000 2016",
      "timestamp_ms": 1456299731494,
      "user_id": 6598262,
      "user_followers_count": 4177,
      "user_friends_count": 1334
    },
    {
      "id": 702553984100405200,
      "text": "@helenalcalde hauriem de tenir un slogan estil \"més que una ciutat\" s'ha de ser molt ruc",
      "created_at": "Wed Feb 24 18:01:37 +0000 2016",
      "timestamp_ms": 1456336897288,
      "user_id": 6598262,
      "user_followers_count": 4180,
      "user_friends_count": 1336
    },
    {
      "id": 702760236944330800,
      "text": "El problema del populisme quan arriba al poder ara a @elmonarac1. La Colau fent equilibri. Esta en campany electoral encara?",
      "created_at": "Thu Feb 25 07:41:11 +0000 2016",
      "timestamp_ms": 1456386071798,
      "user_id": 6598262,
      "user_followers_count": 4181,
      "user_friends_count": 1337
    },
    {
      "id": 703332450387284000,
      "text": "@mik1977 tenen tota la pinta haha",
      "created_at": "Fri Feb 26 21:34:58 +0000 2016",
      "timestamp_ms": 1456522498114,
      "user_id": 6598262,
      "user_followers_count": 4177,
      "user_friends_count": 1343
    },
    {
      "id": 703554228963377200,
      "text": "@narcisdomingo @lluispalleja se m'ha caigut una llagrimeta, bé el vi ha ajudat 😂",
      "created_at": "Sat Feb 27 12:16:14 +0000 2016",
      "timestamp_ms": 1456575374247,
      "user_id": 6598262,
      "user_followers_count": 4177,
      "user_friends_count": 1342
    },
    {
      "id": 703914342329229300,
      "text": "@HGastronomicus ostia doncs m'han entrat ganes, que diu la consellera @MARIACALABUIGCH ?",
      "created_at": "Sun Feb 28 12:07:11 +0000 2016",
      "timestamp_ms": 1456661231964,
      "user_id": 6598262,
      "user_followers_count": 4181,
      "user_friends_count": 1342
    },
    {
      "id": 704029019218583600,
      "text": "@IsraSeyd a veure si @angelcustodio mira el whatsapp haha se moment tiro amb l'osito ;)",
      "created_at": "Sun Feb 28 19:42:53 +0000 2016",
      "timestamp_ms": 1456688573065,
      "user_id": 6598262,
      "user_followers_count": 4179,
      "user_friends_count": 1343
    },
    {
      "id": 704581062601674800,
      "text": "La custom d'alguns Catalans de fer el papanates amb certs Vascos",
      "created_at": "Tue Mar 01 08:16:30 +0000 2016",
      "timestamp_ms": 1456820190464,
      "user_id": 6598262,
      "user_followers_count": 4182,
      "user_friends_count": 1343
    },
    {
      "id": 704584251728109600,
      "text": "@IsraSeyd el tonto que faci el que vulgui, però els catalans que estàn allà que entenguin que no ens han ajudat mai com a pais",
      "created_at": "Tue Mar 01 08:29:10 +0000 2016",
      "timestamp_ms": 1456820950811,
      "user_id": 6598262,
      "user_followers_count": 4182,
      "user_friends_count": 1343
    },
    {
      "id": 705748705018847200,
      "text": "@lluispalleja el tercer era pur oci haha, fes el mateix amb el vi",
      "created_at": "Fri Mar 04 13:36:18 +0000 2016",
      "timestamp_ms": 1457098578110,
      "user_id": 6598262,
      "user_followers_count": 4190,
      "user_friends_count": 1347
    },
    {
      "id": 707834807171072000,
      "text": "M'agrada conectar-me a @elmonarac1 per saber que pasa a casa tot i viure fora, xo el populisme de Bernardos pot amb mi #abuelocebolleta",
      "created_at": "Thu Mar 10 07:45:43 +0000 2016",
      "timestamp_ms": 1457595943621,
      "user_id": 6598262,
      "user_followers_count": 4188,
      "user_friends_count": 1364
    },
    {
      "id": 708779806909980700,
      "text": "@angelcustodio @IsraSeyd jo tinc els dos i el vaig deixar de fer servir per aixó, amb el 6 les fotos son una meravella",
      "created_at": "Sat Mar 12 22:20:49 +0000 2016",
      "timestamp_ms": 1457821249116,
      "user_id": 6598262,
      "user_followers_count": 4193,
      "user_friends_count": 1364
    },
    {
      "id": 709762547537289200,
      "text": "@angelcustodio ja toca que madurem doncs 😂",
      "created_at": "Tue Mar 15 15:25:52 +0000 2016",
      "timestamp_ms": 1458055552740,
      "user_id": 6598262,
      "user_followers_count": 4189,
      "user_friends_count": 1366
    },
    {
      "id": 710211226123554800,
      "text": "Boooooom Barça",
      "created_at": "Wed Mar 16 21:08:46 +0000 2016",
      "timestamp_ms": 1458162526051,
      "user_id": 6598262,
      "user_followers_count": 4189,
      "user_friends_count": 1367
    },
    {
      "id": 710929501954424800,
      "text": "@laurakiwii encara no has marxat? 😂",
      "created_at": "Fri Mar 18 20:42:56 +0000 2016",
      "timestamp_ms": 1458333776354,
      "user_id": 6598262,
      "user_followers_count": 4192,
      "user_friends_count": 1368
    },
    {
      "id": 712641120040255500,
      "text": "M'encanta volar, la gent que vola ja és un altre tema",
      "created_at": "Wed Mar 23 14:04:17 +0000 2016",
      "timestamp_ms": 1458741857906,
      "user_id": 6598262,
      "user_followers_count": 4190,
      "user_friends_count": 1366
    },
    {
      "id": 712652708671524900,
      "text": "Vaaaaaa @vueling que en @TittoAlonso paga el sopar i aixó no m'ho vull perdre!!!! #gaaaaas que anem tard",
      "created_at": "Wed Mar 23 14:50:20 +0000 2016",
      "timestamp_ms": 1458744620851,
      "user_id": 6598262,
      "user_followers_count": 4190,
      "user_friends_count": 1366
    },
    {
      "id": 722724235555246100,
      "text": "@tendenciastv hem de quedar!!",
      "created_at": "Wed Apr 20 09:50:59 +0000 2016",
      "timestamp_ms": 1461145859980,
      "user_id": 6598262,
      "user_followers_count": 4173,
      "user_friends_count": 1374
    },
    {
      "id": 723804340222201900,
      "text": "Feliç Diada de Sant Jordi!\\n\\nSens dubte el dia mé bonic del any. Els que sou a casa no deixeu de… https://t.co/hVQZTD9lsU",
      "created_at": "Sat Apr 23 09:22:57 +0000 2016",
      "timestamp_ms": 1461403377000,
      "user_id": 6598262,
      "user_followers_count": 4171,
      "user_friends_count": 1373
    },
    {
      "id": 724130931313901600,
      "text": "@trinamilan tot i que l'article el vaig llegir fa anys en digital i mira me enrecordat 😜",
      "created_at": "Sun Apr 24 07:00:42 +0000 2016",
      "timestamp_ms": 1461481242384,
      "user_id": 6598262,
      "user_followers_count": 4170,
      "user_friends_count": 1373
    },
    {
      "id": 726088081091248100,
      "text": "@HGastronomicus no es només una bici, és la bici! I millor que altres coses haha",
      "created_at": "Fri Apr 29 16:37:43 +0000 2016",
      "timestamp_ms": 1461947863253,
      "user_id": 6598262,
      "user_followers_count": 4176,
      "user_friends_count": 1374
    },
    {
      "id": 726088375061590000,
      "text": "@HGastronomicus estic molt bé amb les amigues que tinc 😂",
      "created_at": "Fri Apr 29 16:38:53 +0000 2016",
      "timestamp_ms": 1461947933341,
      "user_id": 6598262,
      "user_followers_count": 4176,
      "user_friends_count": 1374
    },
    {
      "id": 730471197704589300,
      "text": "Al sopar de @UKCatalans amb el President @KRLS, avui més que mai Visca Catalunya Lliure",
      "created_at": "Wed May 11 18:54:39 +0000 2016",
      "timestamp_ms": 1462992879688,
      "user_id": 6598262,
      "user_followers_count": 4184,
      "user_friends_count": 1377
    },
    {
      "id": 734493072684396500,
      "text": "Sabeu la carn de gos? Doncs l'arbitre pitjor",
      "created_at": "Sun May 22 21:16:09 +0000 2016",
      "timestamp_ms": 1463951769406,
      "user_id": 6598262,
      "user_followers_count": 4194,
      "user_friends_count": 1372
    },
    {
      "id": 736085017525264400,
      "text": "Va gent que podeu compartir l'anunci d'Estrella abans de que us arribi la birra gratis 😂",
      "created_at": "Fri May 27 06:41:58 +0000 2016",
      "timestamp_ms": 1464331318633,
      "user_id": 6598262,
      "user_followers_count": 4192,
      "user_friends_count": 1378
    },
    {
      "id": 741308659385438200,
      "text": "Estimats pares [i mares] i apreciats monjus de la Salle Tarragona....que estem de puta… https://t.co/y19yTspJ6t",
      "created_at": "Fri Jun 10 16:38:51 +0000 2016",
      "timestamp_ms": 1465576731903,
      "user_id": 6598262,
      "user_followers_count": 4203,
      "user_friends_count": 1360
    },
    {
      "id": 748912957149642800,
      "text": "@HGastronomicus @MARIACALABUIGCH si dimecres no he arribat, mireu els diaris que he matat algú minim 😂",
      "created_at": "Fri Jul 01 16:15:37 +0000 2016",
      "timestamp_ms": 1467389737771,
      "user_id": 6598262,
      "user_followers_count": 4225,
      "user_friends_count": 1375
    },
    {
      "id": 748912429455773700,
      "text": "@HGastronomicus volo amb @vueling si, venir ja t'ho diré sino donen per cul",
      "created_at": "Fri Jul 01 16:13:31 +0000 2016",
      "timestamp_ms": 1467389611959,
      "user_id": 6598262,
      "user_followers_count": 4225,
      "user_friends_count": 1375
    },
    {
      "id": 745508515410677800,
      "text": "La portada de La Vanguardia es una vergonya @MariusCarol, encara et preguntes els motius per perdre lectors? #botifler",
      "created_at": "Wed Jun 22 06:47:35 +0000 2016",
      "timestamp_ms": 1466578055609,
      "user_id": 6598262,
      "user_followers_count": 4212,
      "user_friends_count": 1378
    },
    {
      "id": 745516727321034800,
      "text": "Potser aquests temes li porta la dona i ell no sap re 😂😂 https://t.co/WPzJ5mVEAG",
      "created_at": "Wed Jun 22 07:20:13 +0000 2016",
      "timestamp_ms": 1466580013481,
      "user_id": 6598262,
      "user_followers_count": 4212,
      "user_friends_count": 1378
    },
    {
      "id": 745517311608553500,
      "text": "@air3ag avui em preocupen més els catalans. @MariusCarol botifler",
      "created_at": "Wed Jun 22 07:22:32 +0000 2016",
      "timestamp_ms": 1466580152786,
      "user_id": 6598262,
      "user_followers_count": 4212,
      "user_friends_count": 1378
    },
    {
      "id": 745880078895226900,
      "text": "Ostia la Galdón.....que dolent és el rencor",
      "created_at": "Thu Jun 23 07:24:03 +0000 2016",
      "timestamp_ms": 1466666643247,
      "user_id": 6598262,
      "user_followers_count": 4217,
      "user_friends_count": 1380
    },
    {
      "id": 745999785195413500,
      "text": "Sant Joan fora de casa, putada menys per les cues 😜",
      "created_at": "Thu Jun 23 15:19:43 +0000 2016",
      "timestamp_ms": 1466695183453,
      "user_id": 6598262,
      "user_followers_count": 4218,
      "user_friends_count": 1385
    },
    {
      "id": 746090183465001000,
      "text": "En Foix és ideal per anar a dormir en una nit aixi 😂😂",
      "created_at": "Thu Jun 23 21:18:56 +0000 2016",
      "timestamp_ms": 1466716736080,
      "user_id": 6598262,
      "user_followers_count": 4218,
      "user_friends_count": 1386
    },
    {
      "id": 746236254182740000,
      "text": "@escolano aquest tio es idiota",
      "created_at": "Fri Jun 24 06:59:22 +0000 2016",
      "timestamp_ms": 1466751562053,
      "user_id": 6598262,
      "user_followers_count": 4219,
      "user_friends_count": 1386
    },
    {
      "id": 746592526518345700,
      "text": "@trinamilan després del Brexit potser tenen el que s'ha de tenir per expulsar-los de la eurocopa si la tornen a liar :p",
      "created_at": "Sat Jun 25 06:35:03 +0000 2016",
      "timestamp_ms": 1466836503997,
      "user_id": 6598262,
      "user_followers_count": 4218,
      "user_friends_count": 1387
    },
    {
      "id": 746593298438062100,
      "text": "@trinamilan debat complexe. Més preocupat pels calers a curt i pels amics d'aqui. Han obert la porta a una unió que no funciona, i és bo",
      "created_at": "Sat Jun 25 06:38:08 +0000 2016",
      "timestamp_ms": 1466836688037,
      "user_id": 6598262,
      "user_followers_count": 4218,
      "user_friends_count": 1387
    },
    {
      "id": 746593475890675700,
      "text": "@trinamilan els anirà bé a llarg segur, i tindràn tractat pel single market i treballadors segur. Cero prepcupació més enllà del pound :)",
      "created_at": "Sat Jun 25 06:38:50 +0000 2016",
      "timestamp_ms": 1466836730345,
      "user_id": 6598262,
      "user_followers_count": 4218,
      "user_friends_count": 1387
    },
    {
      "id": 746593953043062800,
      "text": "@trinamilan la doble moral, culpem als anglesos pel que han votat xo no EU per com hem arribat aqui, amb una Merkel interessada en un exit",
      "created_at": "Sat Jun 25 06:40:44 +0000 2016",
      "timestamp_ms": 1466836844107,
      "user_id": 6598262,
      "user_followers_count": 4218,
      "user_friends_count": 1387
    },
    {
      "id": 746594214180458500,
      "text": "@trinamilan sens dubte un moment molt històric, i sense sang pel mig que a EU seria una novetat. Ara ens queda el nostre moment tb ;)",
      "created_at": "Sat Jun 25 06:41:46 +0000 2016",
      "timestamp_ms": 1466836906367,
      "user_id": 6598262,
      "user_followers_count": 4218,
      "user_friends_count": 1387
    },
    {
      "id": 746594630242803700,
      "text": "@trinamilan haurien d'apendre que és una democràcia i ho veig complicat a aquestes alçades del partit :p",
      "created_at": "Sat Jun 25 06:43:25 +0000 2016",
      "timestamp_ms": 1466837005564,
      "user_id": 6598262,
      "user_followers_count": 4218,
      "user_friends_count": 1387
    },
    {
      "id": 746822984577454100,
      "text": "@Daretodiy molt trist xD bé que visquent a London ja tinc prou d votacions per aquesta setmana",
      "created_at": "Sat Jun 25 21:50:49 +0000 2016",
      "timestamp_ms": 1466891449480,
      "user_id": 6598262,
      "user_followers_count": 4221,
      "user_friends_count": 1387
    },
    {
      "id": 747175219668852700,
      "text": "Hola @UKCatalans com podem demanar el visat, per avançar feina per quedar-nos. #quindramadestat",
      "created_at": "Sun Jun 26 21:10:28 +0000 2016",
      "timestamp_ms": 1466975428870,
      "user_id": 6598262,
      "user_followers_count": 4221,
      "user_friends_count": 1387
    },
    {
      "id": 747176504044437500,
      "text": "Però el de la coca no era en Rivera....la Batet no va falta, mare meva quina pena de discurs.",
      "created_at": "Sun Jun 26 21:15:35 +0000 2016",
      "timestamp_ms": 1466975735089,
      "user_id": 6598262,
      "user_followers_count": 4221,
      "user_friends_count": 1387
    },
    {
      "id": 747177527840481300,
      "text": "@air3ag la mare que la va parir, vergonya, gent aixi hauria d'estar a casa seva tancada amb clau",
      "created_at": "Sun Jun 26 21:19:39 +0000 2016",
      "timestamp_ms": 1466975979181,
      "user_id": 6598262,
      "user_followers_count": 4221,
      "user_friends_count": 1387
    },
    {
      "id": 747178048236228600,
      "text": "Us ho dic molt en serio...escoltar la Alicia Sanchez Camacho es el que millor em va per anar de ventre",
      "created_at": "Sun Jun 26 21:21:43 +0000 2016",
      "timestamp_ms": 1466976103253,
      "user_id": 6598262,
      "user_followers_count": 4221,
      "user_friends_count": 1387
    },
    {
      "id": 747178956554707000,
      "text": "@esther_go bé tenim una gran ventatge que ès diu democracia, que a Espanya no existeix ;)",
      "created_at": "Sun Jun 26 21:25:19 +0000 2016",
      "timestamp_ms": 1466976319813,
      "user_id": 6598262,
      "user_followers_count": 4221,
      "user_friends_count": 1387
    },
    {
      "id": 747179306070249500,
      "text": "@esther_go oju que el 2 sopo a el llagut ;)",
      "created_at": "Sun Jun 26 21:26:43 +0000 2016",
      "timestamp_ms": 1466976403144,
      "user_id": 6598262,
      "user_followers_count": 4221,
      "user_friends_count": 1387
    },
    {
      "id": 747181923986972700,
      "text": "Jo voldria felicitar als que han votat el que s'ha carregat el sistema sanitari catala a proposit. Merci, al cole us van fotre poques osties",
      "created_at": "Sun Jun 26 21:37:07 +0000 2016",
      "timestamp_ms": 1466977027304,
      "user_id": 6598262,
      "user_followers_count": 4221,
      "user_friends_count": 1387
    },
    {
      "id": 747182344512081900,
      "text": "@AlbertoLacasa diu molt del nostre pais tb, molt trist",
      "created_at": "Sun Jun 26 21:38:47 +0000 2016",
      "timestamp_ms": 1466977127565,
      "user_id": 6598262,
      "user_followers_count": 4221,
      "user_friends_count": 1387
    },
    {
      "id": 747183464127074300,
      "text": "@oriolcolominas segur que tenen mutua privada i poca autoestima",
      "created_at": "Sun Jun 26 21:43:14 +0000 2016",
      "timestamp_ms": 1466977394502,
      "user_id": 6598262,
      "user_followers_count": 4221,
      "user_friends_count": 1387
    },
    {
      "id": 747186084858175500,
      "text": "Les meves excuses quan suspenia examens eren molt millors que les del Rivera, oi que si @xguell? #Riveraquetehaspartidolacara",
      "created_at": "Sun Jun 26 21:53:39 +0000 2016",
      "timestamp_ms": 1466978019333,
      "user_id": 6598262,
      "user_followers_count": 4221,
      "user_friends_count": 1387
    },
    {
      "id": 747186265439764500,
      "text": "Rivera: el profe em te mania. El meu gos s'ha menjat el treball. #resum",
      "created_at": "Sun Jun 26 21:54:22 +0000 2016",
      "timestamp_ms": 1466978062387,
      "user_id": 6598262,
      "user_followers_count": 4221,
      "user_friends_count": 1387
    },
    {
      "id": 747186442095431700,
      "text": "@elmonarac1 @jordibaste si fa miting pots tallar la conexió no?",
      "created_at": "Sun Jun 26 21:55:04 +0000 2016",
      "timestamp_ms": 1466978104505,
      "user_id": 6598262,
      "user_followers_count": 4221,
      "user_friends_count": 1387
    },
    {
      "id": 747187270357233700,
      "text": "Rivera xato has perdut 500.000 vots, i aixó no es per la llei electoral....#populista",
      "created_at": "Sun Jun 26 21:58:21 +0000 2016",
      "timestamp_ms": 1466978301978,
      "user_id": 6598262,
      "user_followers_count": 4221,
      "user_friends_count": 1387
    },
    {
      "id": 747188964684087300,
      "text": "Dir vot útil cap al PP és com dir intel•ligencia militar @elmonarac1 #alguhohaviadedir",
      "created_at": "Sun Jun 26 22:05:05 +0000 2016",
      "timestamp_ms": 1466978705937,
      "user_id": 6598262,
      "user_followers_count": 4221,
      "user_friends_count": 1387
    },
    {
      "id": 747549164574216200,
      "text": "@XSalaimartin i no diries quin entrenador ha dimitit i quin no xD",
      "created_at": "Mon Jun 27 21:56:24 +0000 2016",
      "timestamp_ms": 1467064584283,
      "user_id": 6598262,
      "user_followers_count": 4217,
      "user_friends_count": 1371
    },
    {
      "id": 748051843880783900,
      "text": "@martamcatala almenys no plou 😂",
      "created_at": "Wed Jun 29 07:13:52 +0000 2016",
      "timestamp_ms": 1467184432369,
      "user_id": 6598262,
      "user_followers_count": 4221,
      "user_friends_count": 1373
    },
    {
      "id": 748052725326352400,
      "text": "@martamcatala el dissabte 😍😍😍😍 estaré algún dia pel teu poble, t'aviso :)",
      "created_at": "Wed Jun 29 07:17:22 +0000 2016",
      "timestamp_ms": 1467184642522,
      "user_id": 6598262,
      "user_followers_count": 4222,
      "user_friends_count": 1373
    },
    {
      "id": 748405204933029900,
      "text": "Tots tenim clar que en Gonzalo Bernardos s'ha tancat al ascensor expressament per treure protagonisme a Mas @elmonarac1",
      "created_at": "Thu Jun 30 06:38:00 +0000 2016",
      "timestamp_ms": 1467268680209,
      "user_id": 6598262,
      "user_followers_count": 4224,
      "user_friends_count": 1374
    },
    {
      "id": 749115688606806000,
      "text": "@bertapps @VuelingClients faig servir la app i ja marca retràs, aixi que paciència companys :)",
      "created_at": "Sat Jul 02 05:41:12 +0000 2016",
      "timestamp_ms": 1467438072717,
      "user_id": 6598262,
      "user_followers_count": 4222,
      "user_friends_count": 1375
    },
    {
      "id": 749146171235524600,
      "text": "No entenc com seguiu tenint llicencia per operar. Dormiu bé per les nits? https://t.co/jPXPGgIjTb",
      "created_at": "Sat Jul 02 07:42:20 +0000 2016",
      "timestamp_ms": 1467445340342,
      "user_id": 6598262,
      "user_followers_count": 4222,
      "user_friends_count": 1375
    },
    {
      "id": 749158437859291100,
      "text": ".@vueling de tot l'aeroport sou els únics amb retards, podeu no enviar emails dient que es per tàfic aeri. Inútils i mentiders #kkvueling",
      "created_at": "Sat Jul 02 08:31:04 +0000 2016",
      "timestamp_ms": 1467448264933,
      "user_id": 6598262,
      "user_followers_count": 4222,
      "user_friends_count": 1375
    },
    {
      "id": 756406475266940900,
      "text": "@esther_go a Tarragona sou molt carques",
      "created_at": "Fri Jul 22 08:32:11 +0000 2016",
      "timestamp_ms": 1469176331713,
      "user_id": 6598262,
      "user_followers_count": 4229,
      "user_friends_count": 1380
    },
    {
      "id": 745517585169449000,
      "text": "A veure @jordibaste @elmonarac1 qui te entrevista avui és en @MariusCarol per explicar la vergonya de portada de @LaVanguardia",
      "created_at": "Wed Jun 22 07:23:38 +0000 2016",
      "timestamp_ms": 1466580218008,
      "user_id": 6598262,
      "user_followers_count": 4212,
      "user_friends_count": 1378
    }
  ]
}